
{
  "header": {
    "reportVersion": 1,
    "event": "Allocation failed - JavaScript heap out of memory",
    "trigger": "FatalError",
    "filename": "report.20201013.234606.97108.0.001.json",
    "dumpEventTime": "2020-10-13T23:46:06Z",
    "dumpEventTimeStamp": "1602650766511",
    "processId": 97108,
    "cwd": "D:\\Documents\\proyectos\\VaginaRosadita\\front\\front_sistema_pagos_agua",
    "commandLine": [
      "C:\\Program Files\\nodejs\\node.exe",
      "D:\\Documents\\proyectos\\VaginaRosadita\\front\\front_sistema_pagos_agua\\node_modules\\@ngtools\\webpack\\src\\type_checker_worker.js",
      "9d93e901-158a-4cf9-ba1b-2f0582ffcfeb"
    ],
    "nodejsVersion": "v12.13.1",
    "wordSize": 64,
    "arch": "x64",
    "platform": "win32",
    "componentVersions": {
      "node": "12.13.1",
      "v8": "7.7.299.13-node.16",
      "uv": "1.33.1",
      "zlib": "1.2.11",
      "brotli": "1.0.7",
      "ares": "1.15.0",
      "modules": "72",
      "nghttp2": "1.39.2",
      "napi": "5",
      "llhttp": "1.1.4",
      "http_parser": "2.8.0",
      "openssl": "1.1.1d",
      "cldr": "35.1",
      "icu": "64.2",
      "tz": "2019c",
      "unicode": "12.1"
    },
    "release": {
      "name": "node",
      "lts": "Erbium",
      "headersUrl": "https://nodejs.org/download/release/v12.13.1/node-v12.13.1-headers.tar.gz",
      "sourceUrl": "https://nodejs.org/download/release/v12.13.1/node-v12.13.1.tar.gz",
      "libUrl": "https://nodejs.org/download/release/v12.13.1/win-x64/node.lib"
    },
    "osName": "Windows_NT",
    "osRelease": "10.0.18362",
    "osVersion": "Windows 10 Pro",
    "osMachine": "x86_64",
    "cpus": [
      {
        "model": "Intel(R) Core(TM) i7-6700HQ CPU @ 2.60GHz",
        "speed": 2592,
        "user": 118705906,
        "nice": 0,
        "sys": 98693781,
        "idle": 1363276359,
        "irq": 31298500
      },
      {
        "model": "Intel(R) Core(TM) i7-6700HQ CPU @ 2.60GHz",
        "speed": 2592,
        "user": 133091812,
        "nice": 0,
        "sys": 38786531,
        "idle": 1408797421,
        "irq": 1505515
      },
      {
        "model": "Intel(R) Core(TM) i7-6700HQ CPU @ 2.60GHz",
        "speed": 2592,
        "user": 131290218,
        "nice": 0,
        "sys": 100610421,
        "idle": 1348775109,
        "irq": 2280031
      },
      {
        "model": "Intel(R) Core(TM) i7-6700HQ CPU @ 2.60GHz",
        "speed": 2592,
        "user": 93270515,
        "nice": 0,
        "sys": 53791562,
        "idle": 1433613687,
        "irq": 2713625
      },
      {
        "model": "Intel(R) Core(TM) i7-6700HQ CPU @ 2.60GHz",
        "speed": 2592,
        "user": 122955500,
        "nice": 0,
        "sys": 86162500,
        "idle": 1371557765,
        "irq": 2522906
      },
      {
        "model": "Intel(R) Core(TM) i7-6700HQ CPU @ 2.60GHz",
        "speed": 2592,
        "user": 74921437,
        "nice": 0,
        "sys": 41949203,
        "idle": 1463805125,
        "irq": 1082546
      },
      {
        "model": "Intel(R) Core(TM) i7-6700HQ CPU @ 2.60GHz",
        "speed": 2592,
        "user": 101914843,
        "nice": 0,
        "sys": 68637578,
        "idle": 1410123328,
        "irq": 1260359
      },
      {
        "model": "Intel(R) Core(TM) i7-6700HQ CPU @ 2.60GHz",
        "speed": 2592,
        "user": 90349734,
        "nice": 0,
        "sys": 57506765,
        "idle": 1432819250,
        "irq": 576640
      }
    ],
    "networkInterfaces": [
      {
        "name": "VirtualBox Host-Only Network",
        "internal": false,
        "mac": "0a:00:27:00:00:0f",
        "address": "fe80::8bd:4756:cacf:d1b2",
        "netmask": "ffff:ffff:ffff:ffff::",
        "family": "IPv6",
        "scopeid": 15
      },
      {
        "name": "VirtualBox Host-Only Network",
        "internal": false,
        "mac": "0a:00:27:00:00:0f",
        "address": "192.168.56.1",
        "netmask": "255.255.255.0",
        "family": "IPv4"
      },
      {
        "name": "Wi-Fi",
        "internal": false,
        "mac": "58:fb:84:32:22:b5",
        "address": "2806:106e:22:1b4a:ac90:af11:972e:76c",
        "netmask": "ffff:ffff:ffff:ffff:ffff:ffff:ffff:ffff",
        "family": "IPv6",
        "scopeid": 0
      },
      {
        "name": "Wi-Fi",
        "internal": false,
        "mac": "58:fb:84:32:22:b5",
        "address": "2806:106e:22:1c44:d39c:6f85:ff79:2f3b",
        "netmask": "ffff:ffff:ffff:ffff:ffff:ffff:ffff:ffff",
        "family": "IPv6",
        "scopeid": 0
      },
      {
        "name": "Wi-Fi",
        "internal": false,
        "mac": "58:fb:84:32:22:b5",
        "address": "fe80::85a0:c860:1d85:7025",
        "netmask": "ffff:ffff:ffff:ffff::",
        "family": "IPv6",
        "scopeid": 24
      },
      {
        "name": "Wi-Fi",
        "internal": false,
        "mac": "58:fb:84:32:22:b5",
        "address": "192.168.1.65",
        "netmask": "255.255.255.0",
        "family": "IPv4"
      },
      {
        "name": "Conexión de área local* 10",
        "internal": false,
        "mac": "5a:fb:84:32:22:b5",
        "address": "fe80::29b7:454e:37b9:13dd",
        "netmask": "ffff:ffff:ffff:ffff::",
        "family": "IPv6",
        "scopeid": 12
      },
      {
        "name": "Conexión de área local* 10",
        "internal": false,
        "mac": "5a:fb:84:32:22:b5",
        "address": "192.168.137.1",
        "netmask": "255.255.255.0",
        "family": "IPv4"
      },
      {
        "name": "Loopback Pseudo-Interface 1",
        "internal": true,
        "mac": "00:00:00:00:00:00",
        "address": "::1",
        "netmask": "ffff:ffff:ffff:ffff:ffff:ffff:ffff:ffff",
        "family": "IPv6",
        "scopeid": 0
      },
      {
        "name": "Loopback Pseudo-Interface 1",
        "internal": true,
        "mac": "00:00:00:00:00:00",
        "address": "127.0.0.1",
        "netmask": "255.0.0.0",
        "family": "IPv4"
      }
    ],
    "host": "DESKTOP-TLQ9T18"
  },
  "javascriptStack": {
    "message": "No stack.",
    "stack": [
      "Unavailable."
    ]
  },
  "nativeStack": [
    {
      "pc": "0x00007ff66ee31729",
      "symbol": "std::basic_ostream<char,std::char_traits<char> >::operator<<+10873"
    },
    {
      "pc": "0x00007ff66ee35b4c",
      "symbol": "std::basic_ostream<char,std::char_traits<char> >::operator<<+28316"
    },
    {
      "pc": "0x00007ff66ee34b08",
      "symbol": "std::basic_ostream<char,std::char_traits<char> >::operator<<+24152"
    },
    {
      "pc": "0x00007ff66ef2369b",
      "symbol": "v8::base::CPU::has_sse+37723"
    },
    {
      "pc": "0x00007ff66f7282de",
      "symbol": "v8::Isolate::ReportExternalAllocationLimitReached+94"
    },
    {
      "pc": "0x00007ff66f710321",
      "symbol": "v8::SharedArrayBuffer::Externalize+833"
    },
    {
      "pc": "0x00007ff66f5ddbec",
      "symbol": "v8::internal::Heap::EphemeronKeyWriteBarrierFromCode+1436"
    },
    {
      "pc": "0x00007ff66f5e8f90",
      "symbol": "v8::internal::Heap::ProtectUnprotectedMemoryChunks+1312"
    },
    {
      "pc": "0x00007ff66f5e5ac4",
      "symbol": "v8::internal::Heap::PageFlagsAreConsistent+3204"
    },
    {
      "pc": "0x00007ff66f5db353",
      "symbol": "v8::internal::Heap::CollectGarbage+1283"
    },
    {
      "pc": "0x00007ff66f5d9b24",
      "symbol": "v8::internal::Heap::AddRetainedMap+2356"
    },
    {
      "pc": "0x00007ff66f5fadf5",
      "symbol": "v8::internal::Factory::NewFillerObject+53"
    },
    {
      "pc": "0x00007ff66f366e19",
      "symbol": "v8::internal::interpreter::JumpTableTargetOffsets::iterator::operator=+4057"
    },
    {
      "pc": "0x00007ff66fb5404d",
      "symbol": "v8::internal::SetupIsolateDelegate::SetupHeap+567949"
    },
    {
      "pc": "0x00007ff66fad530b",
      "symbol": "v8::internal::SetupIsolateDelegate::SetupHeap+48459"
    },
    {
      "pc": "0x00000204d3a1398f",
      "symbol": ""
    }
  ],
  "javascriptHeap": {
    "totalMemory": 2172932096,
    "totalCommittedMemory": 2172932096,
    "usedMemory": 2106703456,
    "availableMemory": 58548896,
    "memoryLimit": 2197815296,
    "heapSpaces": {
      "read_only_space": {
        "memorySize": 262144,
        "committedMemory": 262144,
        "capacity": 261872,
        "used": 32296,
        "available": 229576
      },
      "new_space": {
        "memorySize": 33554432,
        "committedMemory": 33554432,
        "capacity": 16759808,
        "used": 165728,
        "available": 16594080
      },
      "old_space": {
        "memorySize": 1854255104,
        "committedMemory": 1854255104,
        "capacity": 1831579888,
        "used": 1831497656,
        "available": 82232
      },
      "code_space": {
        "memorySize": 5931008,
        "committedMemory": 5931008,
        "capacity": 4921856,
        "used": 4921856,
        "available": 0
      },
      "map_space": {
        "memorySize": 9441280,
        "committedMemory": 9441280,
        "capacity": 1138400,
        "used": 1138400,
        "available": 0
      },
      "large_object_space": {
        "memorySize": 269090816,
        "committedMemory": 269090816,
        "capacity": 268608192,
        "used": 268608192,
        "available": 0
      },
      "code_large_object_space": {
        "memorySize": 397312,
        "committedMemory": 397312,
        "capacity": 339328,
        "used": 339328,
        "available": 0
      },
      "new_large_object_space": {
        "memorySize": 0,
        "committedMemory": 0,
        "capacity": 16759808,
        "used": 0,
        "available": 16759808
      }
    }
  },
  "resourceUsage": {
    "userCpuSeconds": 5305.2,
    "kernelCpuSeconds": 1017.31,
    "cpuConsumptionPercent": 5.16862,
    "maxRss": 2161774592,
    "pageFaults": {
      "IORequired": 22692462,
      "IONotRequired": 0
    },
    "fsActivity": {
      "reads": 484978,
      "writes": 26
    }
  },
  "libuv": [
  ],
  "environmentVariables": {
    "=C:": "C:\\",
    "ALLUSERSPROFILE": "C:\\ProgramData",
    "ANDROID_HOME": "C:\\Users\\52557\\AppData\\Local\\Android\\Sdk",
    "ANDROID_SDK_ROOT": "C:\\Users\\52557\\AppData\\Local\\Android\\Sdk",
    "APPDATA": "C:\\Users\\52557\\AppData\\Roaming",
    "BROWSERSLIST_IGNORE_OLD_DATA": "1",
    "CHROME_CRASHPAD_PIPE_NAME": "\\\\.\\pipe\\crashpad_22888_QKWMEGBPCGYIVUHF",
    "classpath": "D:\\Documents\\programas\\Informatica\\9.1.0\\DataTransformation\\api\\lib\\CM_JavaAPI.jar; ",
    "COLORTERM": "truecolor",
    "COMMONPROGRAMFILES": "C:\\Program Files\\Common Files",
    "CommonProgramFiles(x86)": "C:\\Program Files (x86)\\Common Files",
    "CommonProgramW6432": "C:\\Program Files\\Common Files",
    "COMPUTERNAME": "DESKTOP-TLQ9T18",
    "COMSPEC": "C:\\Windows\\system32\\cmd.exe",
    "DriverData": "C:\\Windows\\System32\\Drivers\\DriverData",
    "ERLANG_HOME": "C:\\Program Files\\erl-23.0",
    "EXEPATH": "C:\\Program Files\\Git\\bin",
    "GDAL_DATA": "C:\\Program Files\\PostgreSQL\\12\\gdal-data",
    "GIT_ASKPASS": "c:\\Users\\52557\\AppData\\Local\\Programs\\Microsoft VS Code\\resources\\app\\extensions\\git\\dist\\askpass.sh",
    "HOME": "C:\\Users\\52557",
    "HOMEDRIVE": "C:",
    "HOMEPATH": "\\Users\\52557",
    "IFCONTENTMASTER_HOME": "D:\\Documents\\programas\\Informatica\\9.1.0\\DataTransformation",
    "IMF_CPP_RESOURCE_PATH": "D:\\Documents\\programas\\Informatica\\9.1.0\\clients\\DeveloperClient\\bin",
    "INFA_RESOURCES": "D:\\Documents\\programas\\Informatica\\9.1.0\\clients\\DeveloperClient\\bin",
    "JAVA_HOME": "C:\\Program Files\\Java\\jdk1.8.0_231",
    "LANG": "es_419.UTF-8",
    "LOCALAPPDATA": "C:\\Users\\52557\\AppData\\Local",
    "LOGONSERVER": "\\\\DESKTOP-TLQ9T18",
    "M2_HOME": "C:\\apache-maven-3.6.1",
    "MSYSTEM": "MINGW64",
    "NUMBER_OF_PROCESSORS": "8",
    "OneDrive": "C:\\Users\\52557\\OneDrive",
    "OneDriveConsumer": "C:\\Users\\52557\\OneDrive",
    "ORIGINAL_XDG_CURRENT_DESKTOP": "undefined",
    "OS": "Windows_NT",
    "OSSINFO": "D:\\Documents\\programas\\Informatica\\9.1.0\\DataTransformation",
    "PATH": "C:\\Program Files\\Git\\mingw64\\bin;C:\\Program Files\\Git\\usr\\bin;C:\\Users\\52557\\bin;D:\\Documents\\programas\\Informatica\\9.1.0\\DataTransformation\\bin;D:\\Documents\\programas\\Informatica\\9.1.0\\clients\\tools\\datadirect;D:\\Documents\\programas\\Informatica\\9.1.0\\clients\\DeveloperClient\\bin;D:\\Documents\\programas\\Informatica\\9.1.0\\clients\\java\\jre\\bin\\server;C:\\oraclexe\\app\\oracle\\product\\11.2.0\\server\\bin;C:\\oraclexe\\app\\oracle\\product\\11.2.0\\server\\bin;C:\\Program Files (x86)\\Common Files\\Oracle\\Java\\javapath;C:\\Windows\\system32;C:\\Windows;C:\\Windows\\System32\\Wbem;C:\\Windows\\System32\\WindowsPowerShell\\v1.0;C:\\Windows\\System32\\OpenSSH;C:\\Program Files\\Git\\cmd;C:\\apache-maven-3.6.1\\bin;C:\\Program Files\\Java\\jdk1.8.0_231\\bin;C:\\Program Files (x86)\\NVIDIA Corporation\\PhysX\\Common;C:\\Program Files\\dotnet;C:\\Program Files\\Microsoft SQL Server\\130\\Tools\\Binn;C:\\Program Files\\Microsoft SQL Server\\Client SDK\\ODBC\\170\\Tools\\Binn;C:\\Program Files\\nodejs;C:\\Gradle\\gradle-6.2.2-bin\\gradle-6.2.2\\bin;C:\\Users\\52557\\AppData\\Local\\Android\\Sdk\\tools\\bin;C:\\Users\\52557\\AppData\\Local\\Android\\Sdk\\platform-tools;C:\\Users\\52557\\AppData\\Local\\Android\\Sdk\\tools;C:\\Program Files\\PuTTY;C:\\Program Files\\RabbitMQ Server\\rabbitmq_server-3.8.8\\sbin;C:\\Users\\52557\\AppData\\Local\\Microsoft\\WindowsApps;C:\\Users\\52557\\AppData\\Local\\Programs\\Microsoft VS Code\\bin;C:\\Users\\52557\\AppData\\Roaming\\npm;C:\\Users\\52557\\AppData\\Local\\GitHubDesktop\\bin",
    "PATHEXT": ".COM;.EXE;.BAT;.CMD;.VBS;.VBE;.JS;.JSE;.WSF;.WSH;.MSC",
    "PLINK_PROTOCOL": "ssh",
    "POSTGIS_ENABLE_OUTDB_RASTERS": "1",
    "POSTGIS_GDAL_ENABLED_DRIVERS": "GTiff PNG JPEG GIF XYZ DTED USGSDEM AAIGrid",
    "PROCESSOR_ARCHITECTURE": "AMD64",
    "PROCESSOR_IDENTIFIER": "Intel64 Family 6 Model 94 Stepping 3, GenuineIntel",
    "PROCESSOR_LEVEL": "6",
    "PROCESSOR_REVISION": "5e03",
    "ProgramData": "C:\\ProgramData",
    "PROGRAMFILES": "C:\\Program Files",
    "ProgramFiles(x86)": "C:\\Program Files (x86)",
    "ProgramW6432": "C:\\Program Files",
    "PSModulePath": "C:\\Program Files\\WindowsPowerShell\\Modules;C:\\Windows\\system32\\WindowsPowerShell\\v1.0\\Modules",
    "PUBLIC": "C:\\Users\\Public",
    "PWD": "D:/Documents/proyectos/VaginaRosadita/front/front_sistema_pagos_agua",
    "RFC_INI": "C:\\Windows\\SysWOW64\\saprfc.ini",
    "SDKMAN_CANDIDATES_API": "https://api.sdkman.io/2",
    "SDKMAN_CANDIDATES_DIR": "C:/Users/52557/.sdkman/candidates",
    "SDKMAN_DIR": "C:/Users/52557/.sdkman",
    "SDKMAN_PLATFORM": "MINGW64_NT-10.0-18362",
    "SDKMAN_VERSION": "5.7.4+362",
    "SESSIONNAME": "Console",
    "SHLVL": "2",
    "SYSTEMDRIVE": "C:",
    "SYSTEMROOT": "C:\\Windows",
    "TEMP": "C:\\Users\\52557\\AppData\\Local\\Temp",
    "TERM": "cygwin",
    "TERM_PROGRAM": "vscode",
    "TERM_PROGRAM_VERSION": "1.49.2",
    "TMP": "C:\\Users\\52557\\AppData\\Local\\Temp",
    "USERDOMAIN": "DESKTOP-TLQ9T18",
    "USERDOMAIN_ROAMINGPROFILE": "DESKTOP-TLQ9T18",
    "USERNAME": "52557",
    "USERPROFILE": "C:\\Users\\52557",
    "VBOX_MSI_INSTALL_PATH": "C:\\Program Files\\Oracle\\VirtualBox\\",
    "VSCODE_GIT_ASKPASS_MAIN": "c:\\Users\\52557\\AppData\\Local\\Programs\\Microsoft VS Code\\resources\\app\\extensions\\git\\dist\\askpass-main.js",
    "VSCODE_GIT_ASKPASS_NODE": "C:\\Users\\52557\\AppData\\Local\\Programs\\Microsoft VS Code\\Code.exe",
    "VSCODE_GIT_IPC_HANDLE": "\\\\.\\pipe\\vscode-git-bc3ededfe9-sock",
    "WEBPACK_DEV_SERVER": "true",
    "WINDIR": "C:\\Windows",
    "_": "C:/Program Files/nodejs/node"
  },
  "sharedObjects": [
    "C:\\Program Files\\nodejs\\node.exe",
    "C:\\Windows\\SYSTEM32\\ntdll.dll",
    "C:\\Windows\\System32\\KERNEL32.DLL",
    "C:\\Windows\\System32\\KERNELBASE.dll",
    "C:\\Windows\\System32\\WS2_32.dll",
    "C:\\Windows\\System32\\RPCRT4.dll",
    "C:\\Windows\\System32\\ADVAPI32.dll",
    "C:\\Windows\\System32\\msvcrt.dll",
    "C:\\Windows\\SYSTEM32\\dbghelp.dll",
    "C:\\Windows\\System32\\sechost.dll",
    "C:\\Windows\\System32\\ucrtbase.dll",
    "C:\\Windows\\System32\\USER32.dll",
    "C:\\Windows\\System32\\win32u.dll",
    "C:\\Windows\\System32\\GDI32.dll",
    "C:\\Windows\\System32\\gdi32full.dll",
    "C:\\Windows\\System32\\msvcp_win.dll",
    "C:\\Windows\\System32\\PSAPI.DLL",
    "C:\\Windows\\System32\\CRYPT32.dll",
    "C:\\Windows\\System32\\MSASN1.dll",
    "C:\\Windows\\System32\\bcrypt.dll",
    "C:\\Windows\\SYSTEM32\\USERENV.dll",
    "C:\\Windows\\SYSTEM32\\IPHLPAPI.DLL",
    "C:\\Windows\\System32\\profapi.dll",
    "C:\\Windows\\SYSTEM32\\WINMM.dll",
    "C:\\Windows\\SYSTEM32\\winmmbase.dll",
    "C:\\Windows\\System32\\cfgmgr32.dll",
    "C:\\Windows\\System32\\bcryptPrimitives.dll",
    "C:\\Windows\\System32\\IMM32.DLL",
    "C:\\Windows\\System32\\powrprof.dll",
    "C:\\Windows\\System32\\UMPDC.dll",
    "C:\\Windows\\SYSTEM32\\CRYPTBASE.DLL",
    "C:\\Windows\\system32\\uxtheme.dll",
    "C:\\Windows\\System32\\combase.dll",
    "C:\\Windows\\system32\\mswsock.dll",
    "C:\\Windows\\System32\\kernel.appcore.dll",
    "C:\\Windows\\System32\\NSI.dll",
    "C:\\Windows\\SYSTEM32\\dhcpcsvc6.DLL",
    "C:\\Windows\\SYSTEM32\\dhcpcsvc.DLL",
    "C:\\Windows\\SYSTEM32\\DNSAPI.dll",
    "C:\\Windows\\system32\\napinsp.dll",
    "C:\\Windows\\system32\\pnrpnsp.dll",
    "C:\\Windows\\System32\\winrnr.dll",
    "C:\\Windows\\system32\\NLAapi.dll",
    "C:\\Windows\\system32\\wshbth.dll"
  ]
}